<?xml version="1.0" encoding="UTF-8" standalone="no"?>
<!DOCTYPE svg PUBLIC "-//W3C//DTD SVG 1.1//EN"
 "http://www.w3.org/Graphics/SVG/1.1/DTD/svg11.dtd">
<!-- Generated by graphviz version 2.38.0 (20140413.2041)
 -->
<!-- Title: snakemake_dag Pages: 1 -->
<svg width="129pt" height="116pt"
 viewBox="0.00 0.00 129.00 116.00" xmlns="http://www.w3.org/2000/svg" xmlns:xlink="http://www.w3.org/1999/xlink">
<g id="graph0" class="graph" transform="scale(1 1) rotate(0) translate(4 112)">
<title>snakemake_dag</title>
<polygon fill="white" stroke="none" points="-4,4 -4,-112 125,-112 125,4 -4,4"/>
<!-- 0 -->
<g id="node1" class="node"><title>0</title>
<path fill="none" stroke="#d85656" stroke-width="2" d="M109,-108C109,-108 12,-108 12,-108 6,-108 0,-102 0,-96 0,-96 0,-84 0,-84 0,-78 6,-72 12,-72 12,-72 109,-72 109,-72 115,-72 121,-78 121,-84 121,-84 121,-96 121,-96 121,-102 115,-108 109,-108"/>
<text text-anchor="middle" x="60.5" y="-87.5" font-family="sans" font-size="10.00">plot_gene_expression</text>
</g>
<!-- 1 -->
<g id="node2" class="node"><title>1</title>
<path fill="none" stroke="#56d8a9" stroke-width="2" d="M75.5,-36C75.5,-36 45.5,-36 45.5,-36 39.5,-36 33.5,-30 33.5,-24 33.5,-24 33.5,-12 33.5,-12 33.5,-6 39.5,-0 45.5,-0 45.5,-0 75.5,-0 75.5,-0 81.5,-0 87.5,-6 87.5,-12 87.5,-12 87.5,-24 87.5,-24 87.5,-30 81.5,-36 75.5,-36"/>
<text text-anchor="middle" x="60.5" y="-15.5" font-family="sans" font-size="10.00">all</text>
</g>
<!-- 0&#45;&gt;1 -->
<g id="edge1" class="edge"><title>0&#45;&gt;1</title>
<path fill="none" stroke="grey" stroke-width="2" d="M60.5,-71.6966C60.5,-63.9827 60.5,-54.7125 60.5,-46.1124"/>
<polygon fill="grey" stroke="grey" stroke-width="2" points="64.0001,-46.1043 60.5,-36.1043 57.0001,-46.1044 64.0001,-46.1043"/>
</g>
</g>
</svg>
